[
  {
    "Date Time": "2017-10-13 13:28:51",
    "Heart Rate": 88,
    "Respiration Rate": 129,
    "Device Temperature": 52,
    "Posture": 240,
    "Activity": 8,
    "Battery Level": 77
  },
  {
    "Date Time": "2017-10-13 13:29:21",
    "Heart Rate": 77,
    "Respiration Rate": 176,
    "Device Temperature": 52,
    "Posture": 241,
    "Activity": 7,
    "Battery Level": 76
  },
  {
    "Date Time": "2017-10-13 13:29:51",
    "Heart Rate": 88,
    "Respiration Rate": 216,
    "Device Temperature": 52,
    "Posture": 239,
    "Activity": 10,
    "Battery Level": 76
  },
  {
    "Date Time": "2017-10-13 13:30:21",
    "Heart Rate": 87,
    "Respiration Rate": "1 G",
    "Device Temperature": 52,
    "Posture": 241,
    "Activity": 7,
    "Battery Level": 76
  },
  {
    "Date Time": "2017-10-13 13:30:51",
    "Heart Rate": 85,
    "Respiration Rate": 172,
    "Device Temperature": 52,
    "Posture": 244,
    "Activity": 11,
    "Battery Level": 76
  },
  {
    "Date Time": "2017-10-13 13:31:21",
    "Heart Rate": 78,
    "Respiration Rate": 118,
    "Device Temperature": 52,
    "Posture": 246,
    "Activity": 7,
    "Battery Level": 76
  },
  {
    "Date Time": "2017-10-13 13:31:51",
    "Heart Rate": 74,
    "Respiration Rate": 252,
    "Device Temperature": 52,
    "Posture": 245,
    "Activity": 9,
    "Battery Level": 76
  },
  {
    "Date Time": "2017-10-13 13:32:21",
    "Heart Rate": 79,
    "Respiration Rate": "8 G",
    "Device Temperature": 52,
    "Posture": 244,
    "Activity": 3,
    "Battery Level": 76
  },
  {
    "Date Time": "2017-10-13 13:32:51",
    "Heart Rate": 82,
    "Respiration Rate": 219,
    "Device Temperature": 52,
    "Posture": 244,
    "Activity": 4,
    "Battery Level": 76
  },
  {
    "Date Time": "2017-10-13 13:33:21",
    "Heart Rate": 90,
    "Respiration Rate": 221,
    "Device Temperature": 52,
    "Posture": 242,
    "Activity": 5,
    "Battery Level": 76
  },
  {
    "Date Time": "2017-10-13 13:33:51",
    "Heart Rate": 83,
    "Respiration Rate": 171,
    "Device Temperature": 53,
    "Posture": 242,
    "Activity": 5,
    "Battery Level": 76
  },
  {
    "Date Time": "2017-10-13 13:34:21",
    "Heart Rate": 76,
    "Respiration Rate": 186,
    "Device Temperature": 53,
    "Posture": 242,
    "Activity": 2,
    "Battery Level": 76
  },
  {
    "Date Time": "2017-10-13 13:34:51",
    "Heart Rate": 77,
    "Respiration Rate": 179,
    "Device Temperature": 53,
    "Posture": 244,
    "Activity": 2,
    "Battery Level": 76
  },
  {
    "Date Time": "2017-10-13 13:35:21",
    "Heart Rate": 73,
    "Respiration Rate": 198,
    "Device Temperature": 53,
    "Posture": 246,
    "Activity": 3,
    "Battery Level": 76
  },
  {
    "Date Time": "2017-10-13 13:35:51",
    "Heart Rate": 78,
    "Respiration Rate": 207,
    "Device Temperature": 53,
    "Posture": 244,
    "Activity": 2,
    "Battery Level": 76
  },
  {
    "Date Time": "2017-10-13 13:36:21",
    "Heart Rate": 79,
    "Respiration Rate": 204,
    "Device Temperature": 53,
    "Posture": 245,
    "Activity": 3,
    "Battery Level": 76
  },
  {
    "Date Time": "2017-10-13 13:36:50",
    "Heart Rate": 94,
    "Respiration Rate": 27,
    "Device Temperature": 53,
    "Posture": 244,
    "Activity": 8,
    "Battery Level": 76
  },
  {
    "Date Time": "2017-10-13 13:37:21",
    "Heart Rate": 84,
    "Respiration Rate": 241,
    "Device Temperature": 53,
    "Posture": 244,
    "Activity": 1,
    "Battery Level": 76
  },
  {
    "Date Time": "2017-10-13 13:37:51",
    "Heart Rate": 77,
    "Respiration Rate": 26,
    "Device Temperature": 53,
    "Posture": 244,
    "Activity": 11,
    "Battery Level": 76
  },
  {
    "Date Time": "2017-10-13 13:38:21",
    "Heart Rate": 75,
    "Respiration Rate": 240,
    "Device Temperature": 53,
    "Posture": 34,
    "Activity": 12,
    "Battery Level": 76
  },
  {
    "Date Time": "2017-10-13 13:38:51",
    "Heart Rate": 86,
    "Respiration Rate": 152,
    "Device Temperature": 53,
    "Posture": 40,
    "Activity": 1,
    "Battery Level": 76
  },
  {
    "Date Time": "2017-10-13 13:39:21",
    "Heart Rate": 77,
    "Respiration Rate": 135,
    "Device Temperature": 53,
    "Posture": 245,
    "Activity": 4,
    "Battery Level": 75
  },
  {
    "Date Time": "2017-10-13 13:39:51",
    "Heart Rate": 77,
    "Respiration Rate": 194,
    "Device Temperature": 53,
    "Posture": 243,
    "Activity": 10,
    "Battery Level": 75
  },
  {
    "Date Time": "2017-10-13 13:43:37",
    "Heart Rate": 82,
    "Respiration Rate": 89,
    "Device Temperature": 52,
    "Posture": 252,
    "Activity": 2,
    "Battery Level": 75
  },
  {
    "Date Time": "2017-10-13 13:44:00",
    "Heart Rate": 80,
    "Respiration Rate": 79,
    "Device Temperature": 51,
    "Posture": 254,
    "Activity": 10,
    "Battery Level": 75
  },
  {
    "Date Time": "2017-10-13 13:44:30",
    "Heart Rate": 72,
    "Respiration Rate": 93,
    "Device Temperature": 51,
    "Posture": "4 G",
    "Activity": 5,
    "Battery Level": 75
  },
  {
    "Date Time": "2017-10-13 13:45:00",
    "Heart Rate": 76,
    "Respiration Rate": 84,
    "Device Temperature": 51,
    "Posture": 239,
    "Activity": 2,
    "Battery Level": 75
  },
  {
    "Date Time": "2017-10-13 13:45:30",
    "Heart Rate": 83,
    "Respiration Rate": 109,
    "Device Temperature": 51,
    "Posture": 253,
    "Activity": 5,
    "Battery Level": 75
  },
  {
    "Date Time": "2017-10-13 13:46:01",
    "Heart Rate": 80,
    "Respiration Rate": 143,
    "Device Temperature": 51,
    "Posture": 11,
    "Activity": 1,
    "Battery Level": 75
  },
  {
    "Date Time": "2017-10-13 13:46:30",
    "Heart Rate": 70,
    "Respiration Rate": 113,
    "Device Temperature": 51,
    "Posture": "6 G",
    "Activity": 3,
    "Battery Level": 75
  },
  {
    "Date Time": "2017-10-13 13:47:00",
    "Heart Rate": 70,
    "Respiration Rate": 122,
    "Device Temperature": 51,
    "Posture": "4 G",
    "Activity": 1,
    "Battery Level": 75
  },
  {
    "Date Time": "2017-10-13 13:47:31",
    "Heart Rate": 76,
    "Respiration Rate": 144,
    "Device Temperature": 51,
    "Posture": "6 G",
    "Activity": 2,
    "Battery Level": 75
  },
  {
    "Date Time": "2017-10-13 13:48:00",
    "Heart Rate": 72,
    "Respiration Rate": 175,
    "Device Temperature": 51,
    "Posture": "1 G",
    "Activity": 2,
    "Battery Level": 75
  },
  {
    "Date Time": "2017-10-13 13:48:30",
    "Heart Rate": 75,
    "Respiration Rate": 96,
    "Device Temperature": 51,
    "Posture": "6 G",
    "Activity": 2,
    "Battery Level": 75
  },
  {
    "Date Time": "2017-10-13 13:49:01",
    "Heart Rate": 77,
    "Respiration Rate": 140,
    "Device Temperature": 51,
    "Posture": "6 G",
    "Activity": 2,
    "Battery Level": 74
  },
  {
    "Date Time": "2017-10-13 13:49:30",
    "Heart Rate": 75,
    "Respiration Rate": 172,
    "Device Temperature": 51,
    "Posture": "3 G",
    "Activity": 2,
    "Battery Level": 74
  },
  {
    "Date Time": "2017-10-13 13:50:00",
    "Heart Rate": 74,
    "Respiration Rate": 179,
    "Device Temperature": 51,
    "Posture": 252,
    "Activity": 3,
    "Battery Level": 74
  },
  {
    "Date Time": "2017-10-13 13:50:30",
    "Heart Rate": 80,
    "Respiration Rate": 123,
    "Device Temperature": 51,
    "Posture": 241,
    "Activity": 2,
    "Battery Level": 74
  },
  {
    "Date Time": "2017-10-13 13:51:00",
    "Heart Rate": 99,
    "Respiration Rate": 79,
    "Device Temperature": 51,
    "Posture": 241,
    "Activity": 2,
    "Battery Level": 74
  },
  {
    "Date Time": "2017-10-13 13:51:30",
    "Heart Rate": 89,
    "Respiration Rate": 145,
    "Device Temperature": 51,
    "Posture": 242,
    "Activity": 4,
    "Battery Level": 74
  },
  {
    "Date Time": "2017-10-13 13:52:02",
    "Heart Rate": 79,
    "Respiration Rate": 225,
    "Device Temperature": 51,
    "Posture": 236,
    "Activity": 2,
    "Battery Level": 74
  },
  {
    "Date Time": "2017-10-13 13:52:30",
    "Heart Rate": 70,
    "Respiration Rate": 162,
    "Device Temperature": 51,
    "Posture": 238,
    "Activity": 4,
    "Battery Level": 74
  },
  {
    "Date Time": "2017-10-13 13:53:00",
    "Heart Rate": 76,
    "Respiration Rate": 168,
    "Device Temperature": 51,
    "Posture": 232,
    "Activity": 1,
    "Battery Level": 74
  },
  {
    "Date Time": "2017-10-13 13:53:30",
    "Heart Rate": 86,
    "Respiration Rate": 110,
    "Device Temperature": 51,
    "Posture": 234,
    "Activity": 1,
    "Battery Level": 74
  },
  {
    "Date Time": "2017-10-13 13:54:00",
    "Heart Rate": 79,
    "Respiration Rate": 216,
    "Device Temperature": 51,
    "Posture": 242,
    "Activity": 4,
    "Battery Level": 74
  },
  {
    "Date Time": "2017-10-13 13:54:30",
    "Heart Rate": 84,
    "Respiration Rate": 184,
    "Device Temperature": 51,
    "Posture": 248,
    "Activity": 5,
    "Battery Level": 74
  },
  {
    "Date Time": "2017-10-13 13:55:00",
    "Heart Rate": 82,
    "Respiration Rate": 135,
    "Device Temperature": 51,
    "Posture": 12,
    "Activity": 22,
    "Battery Level": 74
  },
  {
    "Date Time": "2017-10-13 13:55:31",
    "Heart Rate": 76,
    "Respiration Rate": 84,
    "Device Temperature": 51,
    "Posture": 229,
    "Activity": 3,
    "Battery Level": 74
  },
  {
    "Date Time": "2017-10-13 13:56:00",
    "Heart Rate": 75,
    "Respiration Rate": 164,
    "Device Temperature": 51,
    "Posture": 245,
    "Activity": 2,
    "Battery Level": 74
  },
  {
    "Date Time": "2017-10-13 13:56:32",
    "Heart Rate": 79,
    "Respiration Rate": 154,
    "Device Temperature": 51,
    "Posture": 249,
    "Activity": 2,
    "Battery Level": 74
  },
  {
    "Date Time": "2017-10-13 13:57:00",
    "Heart Rate": 73,
    "Respiration Rate": 149,
    "Device Temperature": 51,
    "Posture": 248,
    "Activity": 1,
    "Battery Level": 74
  },
  {
    "Date Time": "2017-10-13 13:57:30",
    "Heart Rate": 81,
    "Respiration Rate": 189,
    "Device Temperature": 51,
    "Posture": 251,
    "Activity": 1,
    "Battery Level": 74
  }
]